Accessing Data · CorrelationFunctions.jl documentation
…
Edit on GitHub
Accessing Data
The most functions in this package (with exception to pore_size and chord_length) return a value of type CorrelationData:

using CorrelationFunctions
using Random

a = l2(rand(MersenneTwister(1453), 0:1, (100, 100, 100)), 1)

┌─────────────┬─────────────┬─────────────┐
│           x │           y │           z │
├─────────────┼─────────────┼─────────────┤
│      0.4996 │      0.4996 │      0.4996 │
│    0.249501 │    0.249172 │    0.249444 │
│    0.124431 │    0.123846 │    0.124641 │
│   0.0622464 │   0.0617021 │   0.0624268 │
│   0.0311073 │   0.0307448 │   0.0312385 │
│   0.0155316 │   0.0154189 │   0.0156737 │
│  0.00776489 │  0.00771383 │  0.00786596 │
│  0.00386882 │  0.00390645 │   0.0039043 │
│  0.00196304 │  0.00195652 │  0.00190761 │
│  0.00102637 │ 0.000986813 │ 0.000964835 │
│ 0.000534444 │ 0.000482222 │ 0.000486667 │
│ 0.000292135 │ 0.000251685 │ 0.000240449 │
│ 0.000152273 │ 0.000142045 │ 0.000126136 │
│  7.93103e-5 │  7.70115e-5 │  7.35632e-5 │
│  4.88372e-5 │  3.72093e-5 │  4.06977e-5 │
│  2.94118e-5 │  2.23529e-5 │  2.35294e-5 │
│      ⋮      │      ⋮      │      ⋮      │
└─────────────┴─────────────┴─────────────┘
                            34 rows omitted
…
